<svg xmlns="http://www.w3.org/2000/svg" width="31.537" height="31.537" viewBox="0 0 31.537 31.537">
  <g id="Grupo_1407" data-name="Grupo 1407" transform="translate(-8697.148 -11172.632)">
    <path id="Trazado_691" data-name="Trazado 691" d="M-871.419,5371.578l-.341-.341a.121.121,0,0,0-.171,0l-7.569,7.569-7.569-7.569a.121.121,0,0,0-.171,0l-.341.341a.12.12,0,0,0,0,.17l7.555,7.555-.01.01a.121.121,0,0,0-.026.131l-7.576,7.576a.12.12,0,0,0,0,.17l.341.342a.121.121,0,0,0,.171,0l7.569-7.57,7.569,7.569a.12.12,0,0,0,.171,0l.341-.341a.12.12,0,0,0,0-.17l-7.555-7.555.01-.01a.12.12,0,0,0,.026-.131l7.576-7.576A.12.12,0,0,0-871.419,5371.578Z" transform="translate(9592.445 5808.884)" fill="#fff"/>
    <path id="Trazado_692" data-name="Trazado 692" d="M30.3,9.631a15.819,15.819,0,1,0,1.239,6.138A15.715,15.715,0,0,0,30.3,9.631Zm-14.529,21.2A15.064,15.064,0,1,1,30.832,15.768,15.081,15.081,0,0,1,15.768,30.832Z" transform="translate(8728.685 11172.632) rotate(90)" fill="#fff"/>
  </g>
</svg>
