<svg id="Componente_66_15" data-name="Componente 66 – 15" xmlns="http://www.w3.org/2000/svg" width="14.806" height="14.806" viewBox="0 0 14.806 14.806">
  <path id="Unión_9" data-name="Unión 9" d="M0,10.35l4.446-.058V0H7.517V13.344H5.982L0,13.422Z" transform="translate(9.491) rotate(45)" fill="#e95a1d"/>
</svg>
