<svg xmlns="http://www.w3.org/2000/svg" width="18.88" height="17.501" viewBox="0 0 18.88 17.501">
  <path id="Trazado_2034" data-name="Trazado 2034" d="M-4598.674,1828.954a3.423,3.423,0,0,1-2.1,3.833,4.564,4.564,0,0,1-2.906.618,17.945,17.945,0,0,1-4.884-1.607,18.645,18.645,0,0,1-6.739-6.121c-1.014-1.44-2.232-3.071-2.226-5.379.005-1.779,1.039-3.9,2.412-4.266a3.748,3.748,0,0,1,1.855.062c.636.312.941,1.625,1.174,2.164a9.661,9.661,0,0,1,.928,2.411,2.4,2.4,0,0,1-.68,1.3c-.233.286-.822.613-.866,1.113-.064.732.879,1.588,1.237,2.04a10.871,10.871,0,0,0,3.462,3.091,5.8,5.8,0,0,0,2.288.927c.483-.065.867-.7,1.236-1.175.306-.391.748-1.181,1.175-1.237a7.755,7.755,0,0,1,2.473.989A9.816,9.816,0,0,1-4598.674,1828.954Z" transform="translate(4617.531 -1815.947)" fill="#fff" fill-rule="evenodd"/>
</svg>
