<svg xmlns="http://www.w3.org/2000/svg" width="25.63" height="18.286" viewBox="0 0 25.63 18.286">
  <path id="Trazado_1302" data-name="Trazado 1302" d="M1061.5,4176.721h-23.832v18.286h25.63v-18.286Zm-2.827,1.76-8.229,6.159-8.722-6.159Zm2.827,7.268v6.232l-4.858-4.932-1.262,1.339,4.753,4.858h-19.505l5-4.9-1.3-1.339-4.858,4.858v-12.714l10.941,7.856,11.094-8.443Z" transform="translate(-1037.663 -4176.721)" fill="#fff"/>
</svg>
