<svg xmlns="http://www.w3.org/2000/svg" xmlns:xlink="http://www.w3.org/1999/xlink" width="17.113" height="17.074" viewBox="0 0 17.113 17.074">
  <defs>
    <clipPath id="clip-path">
      <rect id="Rectángulo_424" data-name="Rectángulo 424" width="17.113" height="17.074" fill="none"/>
    </clipPath>
  </defs>
  <g id="Grupo_624" data-name="Grupo 624" transform="translate(0 0)">
    <g id="Grupo_624-2" data-name="Grupo 624" transform="translate(0 0)" clip-path="url(#clip-path)">
      <path id="Trazado_2375" data-name="Trazado 2375" d="M.282,5.668H3.833V17.074H.282ZM2.058,0A2.056,2.056,0,1,1,0,2.054,2.055,2.055,0,0,1,2.058,0" transform="translate(0 0)" fill="#fff"/>
      <path id="Trazado_2376" data-name="Trazado 2376" d="M4.28,4.088h3.4v1.56h.047a3.728,3.728,0,0,1,3.357-1.843c3.589,0,4.251,2.361,4.251,5.433v6.255H11.794V9.949c0-1.323-.027-3.024-1.843-3.024-1.847,0-2.127,1.441-2.127,2.928v5.641H4.28Z" transform="translate(1.777 1.58)" fill="#fff"/>
    </g>
  </g>
</svg>
