<svg xmlns="http://www.w3.org/2000/svg" width="27.075" height="27.075" viewBox="0 0 27.075 27.075">
  <g id="Grupo_71" data-name="Grupo 71" transform="translate(-255.388 18.815) rotate(-135)">
    <path id="Unión_1" data-name="Unión 1" d="M0,19.145V0H7.028V12.117H19.145v7.028Z" transform="translate(-196 184.318)" fill="#fff"/>
  </g>
</svg>
